PowerLab/Results Switching/radioswitch.csv

#Digilent WaveForms Oscilloscope Acquisition
#Device Name: Discovery
#Serial Number: SN:210244693705
#Date Time: 2018-03-23 10:59:42.452
#Sample rate: 800Hz
#Samples: 8192
#Trigger: Source: Channel 2 Type: Edge Condition: Rising Level: 100 mV Hyst.: Auto HoldOff: 0 s
#Channel 1: Range: 1 V/div Offset: -2 V
#Channel 2: Range: 100 mV/div Offset: -200 mV

Time (s),Channel 1 (V),Channel 2 (V)
-5.119288154897494,2.5708272804073933,0.18803986680806239
-5.1180381548974943,2.5708272804073933,0.18837298063272759
-5.1167881548974936,2.5708272804073933,0.18837298063272773
-5.1155381548974939,2.5743218654028017,0.18837298063272773
-5.1142881548974941,2.5708272804073933,0.18837298063272773
-5.1130381548974935,2.5708272804073951,0.18837298063272787
-5.1117881548974937,2.5743218654028017,0.18870609445739311
-5.110538154897494,2.5743218654028017,0.18870609445739311
-5.1092881548974942,2.5743218654028017,0.18870609445739311
-5.1080381548974936,2.5743218654027999,0.18870609445739311
-5.1067881548974938,2.5708272804073933,0.18870609445739311
-5.1055381548974941,2.5708272804073933,0.18837298063272773
-5.1042881548974943,2.5708272804073933,0.18803986680806253
-5.1030381548974937,2.5708272804073933,0.18803986680806239
-5.1017881548974939,2.5708272804073933,0.18803986680806239
-5.1005381548974942,2.5708272804073933,0.18770675298339701
-5.0992881548974935,2.5708272804073933,0.18803986680806253
-5.0980381548974938,2.5708272804073933,0.18837298063272773
-5.096788154897494,2.5708272804073933,0.18837298063272773
-5.0955381548974943,2.5743218654027999,0.18837298063272773
-5.0942881548974936,2.5708272804073933,0.18837298063272773
-5.0930381548974939,2.5743218654028017,0.18870609445739311
-5.0917881548974941,2.5743218654028017,0.18870609445739311
-5.0905381548974935,2.5743218654028017,0.18870609445739311
-5.0892881548974938,2.5743218654028017,0.18870609445739311
-5.088038154897494,2.5743218654028017,0.18870609445739311
-5.0867881548974943,2.5743218654028017,0.18837298063272787
-5.0855381548974936,2.5708272804073933,0.18837298063272773
-5.0842881548974939,2.5708272804073933,0.18803986680806239
-5.0830381548974941,2.5708272804073933,0.18803986680806239
-5.0817881548974935,2.5708272804073933,0.18803986680806226
-5.0805381548974937,2.5708272804073933,0.18770675298339701
-5.079288154897494,2.5708272804073933,0.18803986680806239
-5.0780381548974942,2.5708272804073933,0.18837298063272759
-5.0767881548974936,2.5743218654028017,0.18837298063272773
-5.0755381548974938,2.5743218654028017,0.18837298063272773
-5.0742881548974941,2.5708272804073933,0.18837298063272773
-5.0730381548974943,2.5743218654027999,0.18837298063272773
-5.0717881548974937,2.5743218654028017,0.18870609445739311
-5.0705381548974939,2.5743218654028017,0.18870609445739311
-5.0692881548974942,2.5743218654028017,0.18870609445739311
-5.0680381548974935,2.5743218654028017,0.18870609445739298
-5.0667881548974938,2.5743218654028017,0.18837298063272773
-5.065538154897494,2.5708272804073933,0.18837298063272773
-5.0642881548974943,2.5708272804073933,0.18803986680806253
-5.0630381548974936,2.5708272804073933,0.18803986680806239
-5.0617881548974939,2.5708272804073933,0.18803986680806239
-5.0605381548974941,2.5708272804073933,0.18770675298339701
-5.0592881548974935,2.5708272804073933,0.18803986680806239
-5.0580381548974938,2.5708272804073933,0.18803986680806239
-5.056788154897494,2.5708272804073933,0.18837298063272773
-5.0555381548974943,2.5743218654027999,0.18837298063272773
-5.0542881548974936,2.5743218654028017,0.18837298063272773
-5.0530381548974939,2.5743218654028017,0.18870609445739311
-5.0517881548974941,2.5743218654028017,0.18870609445739311
-5.0505381548974935,2.5743218654028017,0.18870609445739311
-5.0492881548974937,2.5743218654028017,0.18870609445739311
-5.048038154897494,2.5743218654028017,0.18870609445739311
-5.0467881548974942,2.5743218654028017,0.18837298063272787
-5.0455381548974936,2.5708272804073933,0.18837298063272759
-5.0442881548974938,2.5708272804073933,0.18803986680806239
-5.0430381548974941,2.5708272804073933,0.18803986680806239
-5.0417881548974943,2.5708272804073933,0.18770675298339715
-5.0405381548974937,2.5708272804073933,0.18770675298339701
-5.0392881548974939,2.5708272804073933,0.18803986680806239
-5.0380381548974942,2.5743218654028017,0.18837298063272773
-5.0367881548974935,2.5708272804073933,0.18837298063272773
-5.0355381548974938,2.5708272804073933,0.18837298063272773
-5.034288154897494,2.5708272804073933,0.18837298063272773
-5.0330381548974943,2.5743218654027999,0.18870609445739298
-5.0317881548974936,2.5708272804073933,0.18870609445739311
-5.0305381548974939,2.5743218654028017,0.18870609445739311
-5.0292881548974941,2.5708272804073933,0.18870609445739311
-5.0280381548974935,2.5743218654027999,0.18870609445739298
-5.0267881548974938,2.5708272804073933,0.18837298063272773
-5.025538154897494,2.5708272804073933,0.18837298063272773
-5.0242881548974943,2.5708272804073933,0.18803986680806253
-5.0230381548974936,2.5708272804073933,0.18803986680806239
-5.0217881548974939,2.5708272804073933,0.18803986680806239
-5.0205381548974941,2.5708272804073933,0.18770675298339701
-5.0192881548974935,2.5708272804073933,0.18803986680806239
-5.0180381548974937,2.5708272804073933,0.18803986680806239
-5.016788154897494,2.5708272804073933,0.18837298063272773
-5.0155381548974942,2.5708272804073933,0.18837298063272773
-5.0142881548974936,2.5743218654028017,0.18837298063272773
-5.0130381548974938,2.5743218654028017,0.18837298063272773
-5.0117881548974941,2.5743218654028017,0.18870609445739311
-5.0105381548974943,2.5743218654028017,0.18870609445739311
-5.0092881548974937,2.5743218654028017,0.18870609445739311
-5.0080381548974939,2.5743218654028017,0.18870609445739311
-5.0067881548974942,2.5743218654028017,0.18837298063272773
-5.0055381548974935,2.5743218654028017,0.18837298063272759
-5.0042881548974938,2.5743218654028017,0.18803986680806239
-5.003038154897494,2.5743218654028017,0.18803986680806239
-5.0017881548974943,2.5708272804073951,0.18803986680806239
-5.0005381548974936,2.5708272804073933,0.18770675298339701
-4.9992881548974939,2.5708272804073933,0.18803986680806239
-4.9980381548974941,2.5708272804073933,0.18837298063272773
-4.9967881548974935,2.5743218654028017,0.18837298063272773
-4.9955381548974938,2.5743218654028017,0.18837298063272773
-4.994288154897494,2.5743218654028017,0.18837298063272773
-4.9930381548974943,2.5743218654028017,0.18870609445739298
-4.9917881548974936,2.5743218654028017,0.18870609445739311
-4.9905381548974939,2.5743218654028017,0.18837298063272773
-4.9892881548974941,2.5743218654028017,0.18870609445739311
-4.9880381548974935,2.5743218654028017,0.18870609445739298
-4.9867881548974937,2.5743218654028017,0.18837298063272773
-4.985538154897494,2.5708272804073933,0.18837298063272773
-4.9842881548974942,2.5708272804073933,0.18803986680806253
-4.9830381548974936,2.5708272804073933,0.18803986680806239
-4.9817881548974938,2.5708272804073933,0.18803986680806239
-4.9805381548974941,2.5708272804073933,0.18770675298339701
-4.9792881548974943,2.5708272804073933,0.18803986680806226
-4.9780381548974937,2.5708272804073933,0.18837298063272773
-4.9767881548974939,2.5743218654028017,0.18837298063272773
-4.9755381548974942,2.5708272804073933,0.18837298063272773
-4.9742881548974935,2.5708272804073951,0.18837298063272773
-4.9730381548974938,2.5743218654028017,0.18837298063272773
-4.971788154897494,2.5743218654028017,0.18870609445739311
-4.9705381548974943,2.5743218654028017,0.18870609445739311
-4.9692881548974936,2.5743218654028017,0.18870609445739311
-4.9680381548974939,2.5743218654028017,0.18870609445739311
-4.9667881548974941,2.5743218654028017,0.18837298063272773
-4.9655381548974935,2.5708272804073933,0.18837298063272759
-4.9642881548974938,2.5708272804073933,0.18803986680806239
-4.963038154897494,2.5708272804073933,0.18803986680806239
-4.9617881548974943,2.5708272804073933,0.18803986680806239
-4.9605381548974936,2.5708272804073933,0.18770675298339701
-4.9592881548974939,2.5708272804073933,0.18803986680806239
-4.9580381548974941,2.5708272804073933,0.18803986680806239
-4.9567881548974935,2.5743218654028017,0.18837298063272773
-4.9555381548974937,2.5743218654028017,0.18837298063272773
-4.954288154897494,2.5708272804073933,0.18837298063272773
-4.9530381548974942,2.5743218654027999,0.18837298063272773
-4.9517881548974936,2.5743218654028017,0.18870609445739311
-4.9505381548974938,2.5743218654028017,0.18870609445739311
-4.9492881548974941,2.5743218654028017,0.18870609445739311
-4.9480381548974943,2.5743218654028017,0.18870609445739311
-4.9467881548974937,2.5708272804073933,0.18837298063272773
-4.9455381548974939,2.5708272804073933,0.18837298063272773
-4.9442881548974942,2.5708272804073933,0.18803986680806239
-4.9430381548974935,2.5708272804073933,0.18803986680806226
-4.9417881548974938,2.5708272804073933,0.18770675298339701
-4.940538154897494,2.5708272804073933,0.18770675298339701
-4.9392881548974943,2.5708272804073933,0.18803986680806226
-4.9380381548974936,2.5708272804073933,0.18803986680806239
-4.9367881548974939,2.5708272804073933,0.18837298063272773
-4.9355381548974941,2.5708272804073933,0.18837298063272773
-4.9342881548974935,2.5708272804073933,0.18837298063272773
-4.9330381548974938,2.5708272804073933,0.18837298063272773
-4.931788154897494,2.5743218654028017,0.18870609445739311
-4.9305381548974943,2.5743218654028017,0.18870609445739311
-4.9292881548974936,2.5743218654028017,0.18870609445739311
-4.9280381548974939,2.5743218654028017,0.18870609445739311
-4.9267881548974941,2.5743218654028017,0.18837298063272773
-4.9255381548974935,2.5743218654028017,0.18837298063272759
-4.9242881548974937,2.5743218654028017,0.18803986680806239
-4.923038154897494,2.5708272804073933,0.18803986680806239
-4.9217881548974942,2.5708272804073933,0.18770675298339715
-4.9205381548974936,2.5743218654027999,0.18770675298339715
-4.9192881548974938,2.5708272804073933,0.18803986680806239
-4.9180381548974941,2.5743218654028017,0.18803986680806239
-4.9167881548974943,2.5743218654028017,0.18837298063272759
-4.9155381548974937,2.5708272804073933,0.18837298063272773
-4.9142881548974939,2.5743218654028017,0.18837298063272773
-4.9130381548974942,2.5743218654028017,0.18837298063272773
-4.9117881548974935,2.5743218654028017,0.18870609445739298
-4.9105381548974938,2.5743218654028017,0.18837298063272773
-4.909288154897494,2.5743218654028017,0.18870609445739311
-4.9080381548974943,2.5743218654028017,0.18870609445739311
-4.9067881548974936,2.5743218654028017,0.18837298063272773
-4.9055381548974939,2.5743218654028017,0.18837298063272773
-4.9042881548974941,2.5708272804073933,0.18803986680806239
-4.9030381548974935,2.5708272804073933,0.18770675298339701
-4.9017881548974938,2.5708272804073933,0.18770675298339701
-4.900538154897494,2.5708272804073933,0.18770675298339701
-4.8992881548974943,2.5708272804073933,0.18803986680806226
-4.8980381548974936,2.5708272804073933,0.18837298063272773
-4.8967881548974939,2.5708272804073933,0.18803986680806239
-4.8955381548974941,2.5708272804073933,0.18837298063272773
-4.8942881548974935,2.5743218654028017,0.18837298063272773
-4.8930381548974937,2.5743218654028017,0.18837298063272773
-4.891788154897494,2.5743218654028017,0.18870609445739311
-4.8905381548974942,2.5743218654028017,0.18837298063272787
-4.8892881548974936,2.5743218654028017,0.18870609445739311
-4.8880381548974938,2.5743218654028017,0.18870609445739311
-4.8867881548974941,2.5743218654028017,0.18837298063272773
-4.8855381548974943,2.5778164503982084,0.16239010230884093
-4.8842881548974937,2.6057731303614782,0.005826604716106687
-4.8830381548974939,2.6057731303614782,0.0024954664694529782
-4.8817881548974942,2.6057731303614782,0.0021623526447876462
-4.8805381548974935,2.6057731303614782,0.0021623526447877976
-4.8792881548974938,2.6057731303614782,0.0024954664694529782
-4.878038154897494,2.6092677153568866,0.0024954664694529782
-4.8767881548974943,2.6092677153568866,0.0024954664694529782
-4.8755381548974936,2.6092677153568866,0.0024954664694529782
-4.8742881548974939,2.6092677153568866,0.0028285802941183658
-4.8730381548974941,2.6092677153568866,0.0028285802941183658
-4.8717881548974935,2.6092677153568866,0.0031616941187836019
-4.8705381548974938,2.6092677153568866,0.0028285802941183658
-4.869288154897494,2.6092677153568866,0.0031616941187837533
-4.8680381548974943,2.6092677153568866,0.0031616941187837533
-4.8667881548974936,2.6092677153568866,0.0028285802941183658
-4.8655381548974939,2.6092677153568866,0.0024954664694529782
-4.8642881548974941,2.6092677153568866,0.0021623526447876462
-4.8630381548974935,2.6092677153568866,0.0021623526447876462
-4.8617881548974937,2.6092677153568866,0.0021623526447876462
-4.860538154897494,2.6092677153568866,0.0018292388201222587
-4.8592881548974942,2.6092677153568866,0.0024954664694526755
-4.8580381548974936,2.6127623003522933,0.0024954664694529782
-4.8567881548974938,2.6092677153568866,0.0024954664694529782
-4.8555381548974941,2.6092677153568866,0.0024954664694529782
-4.8542881548974943,2.6127623003522933,0.0028285802941182144
-4.8530381548974937,2.6127623003522951,0.0028285802941183658
-4.8517881548974939,2.6127623003522951,0.0028285802941183658
-4.8505381548974942,2.6127623003522951,0.0028285802941183658
-4.8492881548974935,2.6127623003522951,0.0031616941187837533
-4.8480381548974938,2.6127623003522951,0.0031616941187837533
-4.846788154897494,2.6127623003522951,0.0028285802941183658
-4.8455381548974943,2.6127623003522951,0.0024954664694531296
-4.8442881548974936,2.6127623003522951,0.0021623526447876462
-4.8430381548974939,2.6127623003522951,0.0021623526447876462
-4.8417881548974941,2.6127623003522951,0.0021623526447876462
-4.8405381548974935,2.6127623003522951,0.0021623526447877976
-4.8392881548974938,2.6127623003522951,0.0024954664694529782
-4.838038154897494,2.6127623003522951,0.0024954664694529782
-4.8367881548974943,2.6127623003522951,0.0024954664694529782
-4.8355381548974936,2.6127623003522951,0.0024954664694529782
-4.8342881548974939,2.6127623003522951,0.0028285802941183658
-4.8330381548974941,2.6127623003522951,0.0028285802941183658
-4.8317881548974935,2.6127623003522951,0.0028285802941183658
-4.8305381548974937,2.6127623003522951,0.0028285802941183658
-4.829288154897494,2.6127623003522951,0.0031616941187837533
-4.8280381548974942,2.6127623003522951,0.0031616941187837533
-4.8267881548974936,2.6127623003522951,0.0028285802941182144
-4.8255381548974938,2.6127623003522951,0.0024954664694529782
-4.8242881548974941,2.6127623003522951,0.0021623526447876462
-4.8230381548974943,2.6127623003522951,0.0021623526447876462
-4.8217881548974937,2.6127623003522951,0.0021623526447876462
-4.8205381548974939,2.6127623003522951,0.0018292388201222587
-4.8192881548974942,2.6127623003522951,0.0024954664694529782
-4.8180381548974935,2.6127623003522951,0.0024954664694529782
-4.8167881548974938,2.6127623003522951,0.0024954664694529782
-4.815538154897494,2.6127623003522951,0.0024954664694529782
-4.8142881548974943,2.6127623003522951,0.0028285802941182144
-4.8130381548974936,2.6127623003522951,0.0028285802941183658
-4.8117881548974939,2.6127623003522951,0.0028285802941183658
-4.8105381548974941,2.6127623003522951,0.0028285802941183658
-4.8092881548974935,2.6127623003522951,0.0031616941187837533
-4.8080381548974938,2.6127623003522951,0.0031616941187837533
-4.806788154897494,2.6127623003522951,0.0028285802941183658
-4.8055381548974943,2.6127623003522951,0.0024954664694531296
-4.8042881548974936,2.6127623003522951,0.0021623526447876462
-4.8030381548974939,2.6127623003522951,0.0021623526447876462
-4.8017881548974941,2.6127623003522951,0.0021623526447876462
-4.8005381548974935,2.6127623003522951,0.0018292388201225616
-4.7992881548974937,2.6127623003522951,0.0024954664694529782
-4.798038154897494,2.6127623003522951,0.0024954664694529782
-4.7967881548974942,2.6127623003522951,0.0024954664694529782
-4.7955381548974936,2.6127623003522951,0.0024954664694531296
-4.7942881548974938,2.6127623003522951,0.0028285802941183658
-4.7930381548974941,2.6127623003522951,0.0028285802941183658
-4.7917881548974943,2.6127623003522951,0.0028285802941183658
-4.7905381548974937,2.616256885347704,0.0028285802941183658
-4.7892881548974939,2.6127623003522951,0.0031616941187837533
-4.7880381548974942,2.616256885347704,0.0031616941187837533
-4.7867881548974935,2.6162568853477022,0.0028285802941183658
-4.7855381548974938,2.6127623003522951,0.0028285802941183658
-4.784288154897494,2.6127623003522951,0.0021623526447876462
-4.7830381548974943,2.6127623003522951,0.0021623526447876462
-4.7817881548974936,2.6127623003522951,0.0021623526447876462
-4.7805381548974939,2.6127623003522951,0.0021623526447876462
-4.7792881548974941,2.6127623003522951,0.0024954664694529782
-4.7780381548974935,2.6127623003522951,0.0024954664694529782
-4.7767881548974938,2.6127623003522951,0.0024954664694529782
-4.775538154897494,2.6127623003522951,0.0024954664694529782
-4.7742881548974943,2.6127623003522951,0.0028285802941182144
-4.7730381548974936,2.6127623003522951,0.0028285802941183658
-4.7717881548974939,2.616256885347704,0.0031616941187837533
-4.7705381548974941,2.616256885347704,0.0028285802941183658
-4.7692881548974935,2.616256885347704,0.0031616941187837533
-4.7680381548974937,2.616256885347704,0.0031616941187837533
-4.766788154897494,2.616256885347704,0.0028285802941183658
-4.7655381548974942,2.6127623003522968,0.0024954664694531296
-4.7642881548974936,2.6127623003522951,0.0021623526447876462
-4.7630381548974938,2.6127623003522951,0.0021623526447876462
-4.7617881548974941,2.6127623003522951,0.0021623526447876462
-4.7605381548974943,2.6127623003522951,0.0021623526447876462
-4.7592881548974937,2.6127623003522951,0.0024954664694529782
-4.7580381548974939,2.6127623003522951,0.0024954664694529782
-4.7567881548974942,2.6127623003522951,0.0024954664694529782
-4.7555381548974935,2.6127623003522951,0.0024954664694531296
-4.7542881548974938,2.6127623003522951,0.0028285802941183658
-4.753038154897494,2.616256885347704,0.0028285802941183658
-4.7517881548974943,2.616256885347704,0.0028285802941183658
-4.7505381548974936,2.616256885347704,0.0028285802941183658
-4.7492881548974939,2.616256885347704,0.0031616941187837533
-4.7480381548974941,2.616256885347704,0.0031616941187837533
-4.7467881548974935,2.616256885347704,0.0028285802941182144
-4.7455381548974938,2.616256885347704,0.0024954664694529782
-4.744288154897494,2.616256885347704,0.0024954664694529782
-4.7430381548974943,2.6127623003522968,0.0021623526447877976
-4.7417881548974936,2.6127623003522951,0.0021623526447876462
-4.7405381548974939,2.6127623003522951,0.0021623526447876462
-4.7392881548974941,2.6127623003522951,0.0024954664694529782
-4.7380381548974935,2.616256885347704,0.0024954664694529782
-4.7367881548974937,2.616256885347704,0.0024954664694529782
-4.735538154897494,2.616256885347704,0.0028285802941183658
-4.7342881548974942,2.616256885347704,0.0028285802941183658
-4.7330381548974936,2.616256885347704,0.0028285802941185171
-4.7317881548974938,2.616256885347704,0.0031616941187837533
-4.7305381548974941,2.616256885347704,0.0028285802941183658
-4.7292881548974943,2.616256885347704,0.0031616941187836019
-4.7280381548974937,2.616256885347704,0.0031616941187837533
-4.7267881548974939,2.616256885347704,0.0028285802941183658
-4.7255381548974942,2.616256885347704,0.0028285802941183658
-4.7242881548974935,2.6162568853477022,0.0024954664694528269
-4.7230381548974938,2.6127623003522951,0.0021623526447876462
-4.721788154897494,2.6127623003522951,0.0021623526447876462
-4.7205381548974943,2.6127623003522951,0.0021623526447876462
-4.7192881548974936,2.6127623003522951,0.0024954664694529782
-4.7180381548974939,2.616256885347704,0.0024954664694529782
-4.7167881548974941,2.616256885347704,0.0024954664694529782
-4.7155381548974935,2.616256885347704,0.0024954664694531296
-4.7142881548974938,2.616256885347704,0.0028285802941183658
-4.713038154897494,2.616256885347704,0.0028285802941183658
-4.7117881548974943,2.616256885347704,0.0028285802941183658
-4.7105381548974936,2.616256885347704,0.0028285802941183658
