PowerLab/Results Switching/radioswitch_newbattery.csv

#Digilent WaveForms Oscilloscope Acquisition
#Device Name: Discovery
#Serial Number: SN:210244693705
#Date Time: 2018-03-23 11:17:42.330
#Sample rate: 800Hz
#Samples: 8192
#Trigger: Source: Channel 2 Type: Edge Condition: Rising Level: 100 mV Hyst.: Auto HoldOff: 0 s
#Channel 1: Range: 1 V/div Offset: -2 V
#Channel 2: Range: 100 mV/div Offset: -200 mV

Time (s),Channel 1 (V),Channel 2 (V)
-5.119204260651629,3.1129410417773462,0.18821798431687234
-5.1179542606516293,3.1129410417773462,0.18821798431687234
-5.1167042606516286,3.1129410417773462,0.18821798431687234
-5.1154542606516289,3.1129410417773462,0.18788487049220695
-5.1142042606516291,3.1129410417773462,0.18755175666754159
-5.1129542606516285,3.1129410417773462,0.18755175666754159
-5.1117042606516288,3.1129410417773462,0.18755175666754159
-5.110454260651629,3.1129410417773462,0.18721864284287623
-5.1092042606516292,3.1094464567819395,0.18721864284287623
-5.1079542606516286,3.1129410417773462,0.18755175666754173
-5.1067042606516289,3.1129410417773462,0.18788487049220695
-5.1054542606516291,3.1129410417773462,0.18755175666754159
-5.1042042606516294,3.1129410417773462,0.18788487049220681
-5.1029542606516287,3.1129410417773462,0.18788487049220695
-5.101704260651629,3.1129410417773462,0.18821798431687234
-5.1004542606516292,3.1129410417773462,0.18821798431687234
-5.0992042606516286,3.1129410417773462,0.18821798431687234
-5.0979542606516288,3.1129410417773462,0.18821798431687234
-5.0967042606516291,3.1129410417773462,0.18821798431687234
-5.0954542606516293,3.1094464567819395,0.18788487049220709
-5.0942042606516287,3.1094464567819378,0.18755175666754159
-5.0929542606516289,3.1094464567819378,0.18721864284287623
-5.0917042606516292,3.1094464567819378,0.18755175666754159
-5.0904542606516285,3.1094464567819378,0.18721864284287623
-5.0892042606516288,3.1094464567819378,0.18721864284287623
-5.087954260651629,3.1094464567819378,0.18755175666754159
-5.0867042606516293,3.1094464567819378,0.18755175666754159
-5.0854542606516286,3.1094464567819378,0.18755175666754159
-5.0842042606516289,3.1094464567819378,0.18788487049220695
-5.0829542606516291,3.1094464567819378,0.18788487049220695
-5.0817042606516285,3.1094464567819378,0.18821798431687234
-5.0804542606516288,3.1094464567819378,0.18821798431687234
-5.079204260651629,3.1094464567819378,0.18821798431687234
-5.0779542606516292,3.1094464567819378,0.18821798431687234
-5.0767042606516286,3.109446456781936,0.18788487049220695
-5.0754542606516289,3.1059518717865293,0.18788487049220695
-5.0742042606516291,3.1059518717865293,0.18755175666754159
-5.0729542606516294,3.1059518717865293,0.18721864284287637
-5.0717042606516287,3.1059518717865293,0.18755175666754159
-5.070454260651629,3.1059518717865293,0.18721864284287623
-5.0692042606516292,3.1059518717865293,0.18721864284287623
-5.0679542606516286,3.1059518717865293,0.18755175666754159
-5.0667042606516288,3.1059518717865293,0.18755175666754159
-5.0654542606516291,3.1059518717865293,0.18788487049220695
-5.0642042606516293,3.1059518717865293,0.18788487049220695
-5.0629542606516287,3.1059518717865293,0.18788487049220695
-5.0617042606516289,3.1059518717865293,0.18821798431687234
-5.0604542606516292,3.1059518717865293,0.18821798431687234
-5.0592042606516285,3.1059518717865293,0.18821798431687234
-5.0579542606516288,3.1059518717865293,0.18821798431687234
-5.056704260651629,3.1024572867911209,0.18821798431687234
-5.0554542606516293,3.1024572867911209,0.18788487049220709
-5.0542042606516286,3.1024572867911209,0.18755175666754159
-5.0529542606516289,3.1024572867911209,0.18721864284287623
-5.0517042606516291,3.1024572867911209,0.18721864284287623
-5.0504542606516285,3.0989627017957124,0.18721864284287623
-5.0492042606516288,3.0989627017957124,0.18721864284287623
-5.047954260651629,3.1024572867911209,0.18755175666754159
-5.0467042606516292,3.1024572867911209,0.18755175666754159
-5.0454542606516286,3.0989627017957124,0.18788487049220695
-5.0442042606516289,3.0989627017957124,0.18788487049220695
-5.0429542606516291,3.0989627017957124,0.18788487049220695
-5.0417042606516294,3.0989627017957124,0.1882179843168722
-5.0404542606516287,3.0989627017957124,0.18821798431687234
-5.039204260651629,3.0989627017957124,0.18821798431687234
-5.0379542606516292,3.0989627017957124,0.1885510981415377
-5.0367042606516286,3.0989627017957124,0.1882179843168722
-5.0354542606516288,3.0989627017957124,0.18788487049220695
-5.0342042606516291,3.095468116800304,0.18755175666754159
-5.0329542606516293,3.095468116800304,0.18721864284287637
-5.0317042606516287,3.095468116800304,0.18721864284287623
-5.0304542606516289,3.095468116800304,0.18721864284287623
-5.0292042606516292,3.095468116800304,0.18721864284287623
-5.0279542606516285,3.0954681168003022,0.18755175666754159
-5.0267042606516288,3.0919735318048955,0.18755175666754159
-5.025454260651629,3.095468116800304,0.18755175666754159
-5.0242042606516293,3.0919735318048973,0.18755175666754159
-5.0229542606516286,3.0919735318048955,0.18788487049220695
-5.0217042606516289,3.0919735318048955,0.18821798431687234
-5.0204542606516291,3.0919735318048955,0.18821798431687234
-5.0192042606516285,3.0919735318048955,0.18821798431687234
-5.0179542606516288,3.0919735318048955,0.18821798431687234
-5.016704260651629,3.0919735318048955,0.18788487049220695
-5.0154542606516292,3.0919735318048955,0.18788487049220695
-5.0142042606516286,3.0919735318048938,0.18755175666754145
-5.0129542606516289,3.0884789468094871,0.18721864284287623
-5.0117042606516291,3.0884789468094871,0.18721864284287623
-5.0104542606516294,3.0884789468094871,0.18721864284287623
-5.0092042606516287,3.0884789468094871,0.18721864284287623
-5.007954260651629,3.0884789468094871,0.18755175666754159
-5.0067042606516292,3.0884789468094871,0.18755175666754159
-5.0054542606516286,3.0884789468094871,0.18788487049220695
-5.0042042606516288,3.0884789468094871,0.18788487049220695
-5.0029542606516291,3.0884789468094871,0.18788487049220695
-5.0017042606516293,3.0849843618140804,0.1882179843168722
-5.0004542606516287,3.0884789468094871,0.18821798431687234
-4.9992042606516289,3.0849843618140786,0.18821798431687234
-4.9979542606516292,3.0849843618140786,0.18821798431687234
-4.9967042606516285,3.0849843618140786,0.1882179843168722
-4.9954542606516288,3.0849843618140786,0.18788487049220695
-4.994204260651629,3.0814897768186702,0.18755175666754159
-4.9929542606516293,3.0814897768186702,0.18721864284287637
-4.9917042606516286,3.0814897768186702,0.18721864284287623
-4.9904542606516289,3.0814897768186702,0.18721864284287623
-4.9892042606516291,3.0779951918232613,0.18721864284287623
-4.9879542606516285,3.0814897768186702,0.18788487049220681
-4.9867042606516288,3.0814897768186702,0.18755175666754159
-4.985454260651629,3.0779951918232613,0.18788487049220695
-4.9842042606516292,3.0779951918232613,0.18788487049220695
-4.9829542606516286,3.0779951918232613,0.18788487049220709
-4.9817042606516289,3.0779951918232613,0.18821798431687234
-4.9804542606516291,3.0779951918232613,0.18821798431687234
-4.9792042606516294,3.0779951918232613,0.18821798431687234
-4.9779542606516287,3.0779951918232613,0.18821798431687234
-4.976704260651629,3.0745006068278529,0.18788487049220695
-4.9754542606516292,3.0745006068278529,0.18755175666754159
-4.9742042606516286,3.0745006068278529,0.18755175666754145
-4.9729542606516288,3.0745006068278529,0.18721864284287623
-4.9717042606516291,3.0710060218324444,0.18721864284287623
-4.9704542606516293,3.0710060218324444,0.18721864284287623
-4.9692042606516287,3.0710060218324444,0.18721864284287623
-4.9679542606516289,3.0710060218324444,0.18755175666754159
-4.9667042606516292,3.0710060218324444,0.18755175666754159
-4.9654542606516285,3.0710060218324426,0.18788487049220681
-4.9642042606516288,3.067511436837036,0.18755175666754159
-4.962954260651629,3.067511436837036,0.18788487049220695
-4.9617042606516293,3.067511436837036,0.1882179843168722
-4.9604542606516286,3.067511436837036,0.18821798431687234
-4.9592042606516289,3.067511436837036,0.18821798431687234
-4.9579542606516291,3.067511436837036,0.18821798431687234
-4.9567042606516285,3.0640168518416271,0.18788487049220681
-4.9554542606516288,3.0640168518416271,0.18755175666754159
-4.954204260651629,3.0640168518416271,0.18755175666754159
-4.9529542606516292,3.0605222668462204,0.18721864284287637
-4.9517042606516286,3.0605222668462186,0.18721864284287623
-4.9504542606516289,3.0605222668462186,0.18721864284287623
-4.9492042606516291,3.0570276818508102,0.18721864284287623
-4.9479542606516294,3.0570276818508102,0.18755175666754145
-4.9467042606516287,3.0570276818508102,0.18755175666754159
-4.945454260651629,3.0570276818508102,0.18755175666754159
-4.9442042606516292,3.0570276818508102,0.18755175666754159
-4.9429542606516286,3.0535330968554018,0.18788487049220695
-4.9417042606516288,3.0535330968554018,0.18788487049220695
-4.9404542606516291,3.0535330968554018,0.18821798431687234
-4.9392042606516293,3.0535330968554018,0.18821798431687234
-4.9379542606516287,3.0535330968554018,0.18821798431687234
-4.9367042606516289,3.0500385118599933,0.18821798431687234
-4.9354542606516292,3.0500385118599933,0.18788487049220695
-4.9342042606516285,3.0500385118599933,0.18755175666754145
-4.9329542606516288,3.0500385118599933,0.18721864284287623
-4.931704260651629,3.0465439268645849,0.18721864284287623
-4.9304542606516293,3.0465439268645849,0.18721864284287623
-4.9292042606516286,3.0430493418691764,0.18721864284287623
-4.9279542606516289,3.0465439268645849,0.18755175666754159
-4.9267042606516291,3.0465439268645849,0.18755175666754159
-4.9254542606516285,3.0430493418691764,0.18788487049220695
-4.9242042606516288,3.0430493418691764,0.18788487049220695
-4.922954260651629,3.0430493418691764,0.18788487049220695
-4.9217042606516292,3.0430493418691764,0.1882179843168722
-4.9204542606516286,3.0430493418691764,0.18821798431687234
-4.9192042606516289,3.0430493418691764,0.18821798431687234
-4.9179542606516291,3.0430493418691764,0.1885510981415377
-4.9167042606516294,3.0430493418691764,0.18821798431687248
-4.9154542606516287,3.039554756873768,0.18788487049220695
-4.914204260651629,3.039554756873768,0.18755175666754159
-4.9129542606516292,3.039554756873768,0.18755175666754159
-4.9117042606516286,3.039554756873768,0.18721864284287623
-4.9104542606516288,3.039554756873768,0.18721864284287623
-4.9092042606516291,3.039554756873768,0.18755175666754159
-4.9079542606516293,3.039554756873768,0.18788487049220681
-4.9067042606516287,3.039554756873768,0.18788487049220695
-4.9054542606516289,3.039554756873768,0.18788487049220695
-4.9042042606516292,3.039554756873768,0.18788487049220695
-4.9029542606516285,3.039554756873768,0.18788487049220709
-4.9017042606516288,3.039554756873768,0.18821798431687234
-4.900454260651629,3.0430493418691764,0.18821798431687234
-4.8992042606516293,3.0430493418691764,0.18821798431687234
-4.8979542606516286,3.0430493418691764,0.18821798431687234
-4.8967042606516289,3.039554756873768,0.18821798431687234
-4.8954542606516291,3.039554756873768,0.18788487049220695
-4.8942042606516285,3.039554756873768,0.18755175666754145
-4.8929542606516288,3.039554756873768,0.18721864284287623
-4.891704260651629,3.039554756873768,0.18721864284287623
-4.8904542606516292,3.039554756873768,0.18721864284287623
-4.8892042606516286,3.0360601718783595,0.18721864284287637
-4.8879542606516289,3.0360601718783595,0.18755175666754159
-4.8867042606516291,3.0360601718783595,0.18788487049220695
-4.8854542606516294,3.0745006068278355,0.15457348802568543
-4.8842042606516287,3.2352515166166445,0.0080034051729088174
-4.882954260651629,3.2422406866074613,0.0023404701535975903
-4.8817042606516292,3.2422406866074613,0.00267358397826295
-4.8804542606516286,3.2422406866074613,0.00267358397826295
-4.8792042606516288,3.2422406866074613,0.00267358397826295
-4.8779542606516291,3.2422406866074613,0.00267358397826295
-4.8767042606516293,3.2422406866074613,0.0023404701535977416
-4.8754542606516287,3.2422406866074613,0.0020073563289322305
-4.8742042606516289,3.2422406866074613,0.001674242504266843
-4.8729542606516292,3.2422406866074613,0.001674242504266843
-4.8717042606516285,3.2422406866074613,0.0016742425042666914
-4.8704542606516288,3.2422406866074613,0.0013411286796014832
-4.869204260651629,3.2422406866074613,0.0013411286796014832
-4.8679542606516293,3.2422406866074613,0.0020073563289319278
-4.8667042606516286,3.2422406866074613,0.0020073563289322305
-4.8654542606516289,3.2422406866074613,0.0020073563289322305
-4.8642042606516291,3.2422406866074613,0.0020073563289322305
-4.8629542606516285,3.2422406866074631,0.0023404701535975903
-4.8617042606516288,3.2457352716028698,0.0023404701535975903
-4.860454260651629,3.2457352716028698,0.00267358397826295
-4.8592042606516292,3.2457352716028698,0.00267358397826295
-4.8579542606516286,3.2457352716028698,0.0026735839782627987
-4.8567042606516289,3.2457352716028698,0.0023404701535975903
-4.8554542606516291,3.2422406866074613,0.0020073563289322305
-4.8542042606516294,3.2422406866074613,0.0020073563289322305
-4.8529542606516287,3.2422406866074613,0.001674242504266843
-4.851704260651629,3.2422406866074613,0.001674242504266843
-4.8504542606516292,3.2422406866074613,0.0013411286796014832
-4.8492042606516286,3.2422406866074631,0.0016742425042669945
-4.8479542606516288,3.2457352716028698,0.0020073563289322305
-4.8467042606516291,3.2457352716028698,0.0020073563289322305
-4.8454542606516293,3.2457352716028698,0.0020073563289322305
-4.8442042606516287,3.2457352716028698,0.0020073563289322305
-4.8429542606516289,3.2457352716028698,0.0023404701535975903
-4.8417042606516292,3.2457352716028698,0.0023404701535975903
-4.8404542606516285,3.2457352716028698,0.0033398116275933942
-4.8392042606516288,3.2457352716028698,0.00267358397826295
-4.837954260651629,3.2457352716028698,0.00267358397826295
-4.8367042606516293,3.2457352716028698,0.0023404701535977416
-4.8354542606516286,3.2457352716028698,0.0020073563289322305
-4.8342042606516289,3.2457352716028698,0.0020073563289322305
-4.8329542606516291,3.2422406866074613,0.001674242504266843
-4.8317042606516285,3.2457352716028698,0.0016742425042666914
-4.8304542606516288,3.2457352716028698,0.0013411286796014832
-4.829204260651629,3.2422406866074613,0.001674242504266843
-4.8279542606516292,3.245735271602868,0.0020073563289320791
-4.8267042606516286,3.2422406866074631,0.0020073563289322305
-4.8254542606516289,3.2457352716028698,0.0020073563289322305
-4.8242042606516291,3.2457352716028698,0.0020073563289322305
-4.8229542606516294,3.2457352716028698,0.0023404701535974389
-4.8217042606516287,3.2457352716028698,0.0023404701535975903
-4.820454260651629,3.2457352716028698,0.0023404701535975903
-4.8192042606516292,3.2457352716028698,0.0023404701535975903
-4.8179542606516286,3.2457352716028698,0.0026735839782627987
-4.8167042606516288,3.2457352716028698,0.0023404701535975903
-4.8154542606516291,3.2457352716028698,0.0020073563289322305
-4.8142042606516293,3.2457352716028698,0.0020073563289322305
-4.8129542606516287,3.2422406866074613,0.001674242504266843
-4.8117042606516289,3.2422406866074613,0.001674242504266843
-4.8104542606516292,3.2457352716028698,0.0013411286796014832
-4.8092042606516285,3.2422406866074631,0.0016742425042669945
-4.8079542606516288,3.2457352716028698,0.0020073563289322305
-4.806704260651629,3.2457352716028698,0.0020073563289322305
-4.8054542606516293,3.2457352716028698,0.0020073563289322305
-4.8042042606516286,3.2457352716028698,0.0020073563289322305
-4.8029542606516289,3.2457352716028698,0.0023404701535975903
-4.8017042606516291,3.2457352716028698,0.00267358397826295
-4.8004542606516285,3.2457352716028698,0.0026735839782627987
-4.7992042606516288,3.2457352716028698,0.0023404701535975903
-4.797954260651629,3.2457352716028698,0.00267358397826295
-4.7967042606516292,3.2457352716028698,0.0023404701535977416
-4.7954542606516286,3.2457352716028698,0.0020073563289320791
-4.7942042606516289,3.2457352716028698,0.001674242504266843
-4.7929542606516291,3.2457352716028698,0.001674242504266843
-4.7917042606516294,3.2457352716028698,0.001674242504266843
-4.7904542606516287,3.2457352716028698,0.001674242504266843
-4.789204260651629,3.2457352716028698,0.001674242504266843
-4.7879542606516292,3.2457352716028698,0.0020073563289322305
-4.7867042606516286,3.2457352716028698,0.0020073563289322305
-4.7854542606516288,3.2457352716028698,0.0020073563289322305
-4.7842042606516291,3.2457352716028698,0.0020073563289322305
-4.7829542606516293,3.2457352716028698,0.0023404701535974389
-4.7817042606516287,3.2457352716028698,0.0023404701535975903
-4.7804542606516289,3.2457352716028698,0.00267358397826295
-4.7792042606516292,3.2457352716028698,0.0023404701535975903
-4.7779542606516285,3.2457352716028698,0.0026735839782627987
-4.7767042606516288,3.2457352716028698,0.0023404701535975903
-4.775454260651629,3.2457352716028698,0.0020073563289322305
-4.7742042606516293,3.2457352716028698,0.0016742425042669943
-4.7729542606516286,3.2457352716028698,0.001674242504266843
-4.7717042606516289,3.2457352716028698,0.001674242504266843
-4.7704542606516291,3.2457352716028698,0.0013411286796014832
-4.7692042606516285,3.2457352716028698,0.0016742425042669945
-4.7679542606516288,3.2457352716028698,0.0020073563289322305
-4.766704260651629,3.2457352716028698,0.0020073563289322305
-4.7654542606516292,3.2457352716028698,0.0020073563289322305
-4.7642042606516286,3.2457352716028698,0.0020073563289323818
-4.7629542606516289,3.2457352716028698,0.0023404701535975903
-4.7617042606516291,3.2457352716028698,0.0023404701535975903
-4.7604542606516294,3.2457352716028698,0.0026735839782627987
-4.7592042606516287,3.2457352716028698,0.0023404701535975903
-4.757954260651629,3.2457352716028698,0.00267358397826295
-4.7567042606516292,3.2457352716028698,0.0023404701535975903
-4.7554542606516286,3.2457352716028698,0.0020073563289320791
-4.7542042606516288,3.2457352716028698,0.001674242504266843
-4.7529542606516291,3.2457352716028698,0.001674242504266843
-4.7517042606516293,3.2457352716028698,0.001674242504266843
-4.7504542606516287,3.2457352716028698,0.0013411286796014832
-4.7492042606516289,3.2457352716028698,0.001674242504266843
-4.7479542606516292,3.2457352716028698,0.0020073563289322305
-4.7467042606516285,3.2457352716028698,0.0020073563289322305
-4.7454542606516288,3.2457352716028698,0.0020073563289322305
-4.744204260651629,3.2457352716028698,0.0020073563289322305
-4.7429542606516293,3.2457352716028698,0.0023404701535974389
-4.7417042606516286,3.2457352716028698,0.0023404701535975903
-4.7404542606516289,3.2457352716028698,0.00267358397826295
-4.7392042606516291,3.2457352716028698,0.00267358397826295
-4.7379542606516285,3.2457352716028698,0.0026735839782627987
-4.7367042606516288,3.2457352716028698,0.0023404701535975903
-4.735454260651629,3.2457352716028698,0.0023404701535975903
-4.7342042606516292,3.2457352716028698,0.0016742425042671459
-4.7329542606516286,3.2457352716028698,0.001674242504266843
-4.7317042606516289,3.2457352716028698,0.001674242504266843
-4.7304542606516291,3.2457352716028698,0.0013411286796014832
-4.7292042606516294,3.2457352716028698,0.0016742425042666916
-4.7279542606516287,3.2457352716028698,0.0020073563289322305
-4.726704260651629,3.2457352716028698,0.0020073563289322305
-4.7254542606516292,3.2457352716028698,0.0020073563289322305
-4.7242042606516286,3.2457352716028698,0.0023404701535975903
-4.7229542606516288,3.2457352716028698,0.0023404701535975903
-4.7217042606516291,3.2457352716028698,0.0023404701535975903
-4.7204542606516293,3.2457352716028698,0.0026735839782627987
-4.7192042606516287,3.2457352716028698,0.0023404701535975903
-4.7179542606516289,3.2457352716028698,0.00267358397826295
-4.7167042606516292,3.2457352716028698,0.0023404701535975903
-4.7154542606516285,3.2457352716028698,0.0020073563289322305
-4.7142042606516288,3.2457352716028698,0.0020073563289322305
-4.712954260651629,3.2457352716028698,0.001674242504266843
-4.7117042606516293,3.2457352716028698,0.001674242504266843
-4.7104542606516286,3.2457352716028698,0.0013411286796014832
-4.7092042606516289,3.2457352716028698,0.001674242504266843
