PowerLab/Results/PowerLab Send-Receive High.csv

#Digilent WaveForms Oscilloscope Acquisition
#Device Name: Discovery
#Serial Number: SN:210244693705
#Date Time: 2018-04-11 11:07:05.307
#Sample rate: 400000Hz
#Samples: 8192
#Trigger: Source: Channel 2 Type: Edge Condition: Falling Level: 155 mV Hyst.: Auto HoldOff: 0 s
#Channel 1: Range: 50 mV/div Offset: 0 V
#Channel 2: Range: 50 mV/div Offset: -250 mV

Time (s),Channel 1 (V),Channel 2 (V)
-0.0102375,0.18404499905235408,0.18413909882901131
-0.010234999999999999,0.18371346134541963,0.18447221265367669
-0.010232499999999999,0.18338192363848532,0.18413909882901117
-0.01023,0.18371346134541963,0.18380598500434595
-0.010227499999999999,0.18371346134541963,0.18380598500434595
-0.010225,0.18404499905235408,0.18347287117968059
-0.010222499999999999,0.18404499905235408,0.18380598500434595
-0.01022,0.18404499905235408,0.18413909882901117
-0.010217499999999999,0.18371346134541963,0.18380598500434595
-0.010214999999999998,0.18371346134541963,0.18413909882901144
-0.010212499999999999,0.18371346134541963,0.18447221265367669
-0.010209999999999999,0.18305038593155087,0.18447221265367639
-0.0102075,0.18338192363848518,0.18380598500434595
-0.010204999999999999,0.18305038593155074,0.18380598500434595
-0.0102025,0.18371346134541963,0.18413909882901131
-0.010199999999999999,0.18371346134541963,0.18413909882901131
-0.0101975,0.18404499905235394,0.18380598500434608
-0.010194999999999999,0.18437653675928853,0.18380598500434595
-0.010192499999999998,0.18437653675928839,0.18413909882901144
-0.010189999999999999,0.18404499905235408,0.18447221265367669
-0.010187499999999999,0.18404499905235377,0.18413909882901131
-0.010185,0.18338192363848518,0.18413909882901131
-0.010182499999999999,0.18338192363848518,0.18413909882901131
-0.01018,0.18404499905235377,0.18447221265367655
-0.010177499999999999,0.18404499905235408,0.18447221265367669
-0.010175,0.18437653675928839,0.18413909882901144
-0.010172499999999999,0.18404499905235408,0.18447221265367669
-0.010169999999999998,0.18371346134541994,0.18413909882901131
-0.010167499999999999,0.18437653675928853,0.18413909882901131
-0.010164999999999999,0.18404499905235408,0.18380598500434595
-0.0101625,0.18371346134541963,0.18380598500434595
-0.010159999999999999,0.18338192363848518,0.18413909882901131
-0.0101575,0.18338192363848518,0.18413909882901131
-0.010154999999999999,0.18371346134541963,0.18380598500434595
-0.0101525,0.18371346134541963,0.18413909882901117
-0.010149999999999999,0.18371346134541963,0.18413909882901131
-0.010147499999999999,0.18371346134541963,0.18413909882901117
-0.010145,0.18371346134541963,0.18380598500434595
-0.010142499999999999,0.18404499905235408,0.18347287117968059
-0.01014,0.18404499905235408,0.18380598500434595
-0.010137499999999999,0.18371346134541963,0.18380598500434595
-0.010135,0.18371346134541963,0.18447221265367639
-0.010132499999999999,0.18371346134541963,0.18447221265367669
-0.010129999999999998,0.18437653675928839,0.18447221265367655
-0.010127499999999999,0.18404499905235408,0.18413909882901131
-0.010124999999999999,0.18371346134541963,0.18413909882901117
-0.0101225,0.18371346134541963,0.18380598500434595
-0.010119999999999999,0.18371346134541963,0.18413909882901131
-0.0101175,0.18404499905235408,0.18413909882901131
-0.010114999999999999,0.18404499905235408,0.18413909882901131
-0.0101125,0.18371346134541977,0.18413909882901131
-0.010109999999999999,0.18404499905235408,0.18380598500434595
-0.010107499999999998,0.18371346134541977,0.18413909882901131
-0.010104999999999999,0.18404499905235408,0.18413909882901131
-0.010102499999999999,0.18404499905235394,0.18380598500434608
-0.0101,0.18371346134541963,0.18413909882901131
-0.010097499999999999,0.18404499905235408,0.18413909882901131
-0.010095,0.18437653675928839,0.18380598500434608
-0.010092499999999999,0.18404499905235408,0.18413909882901131
-0.01009,0.18404499905235408,0.18447221265367655
-0.010087499999999999,0.18470807446622298,0.18413909882901131
-0.010084999999999998,0.18404499905235422,0.18447221265367669
-0.010082499999999999,0.18437653675928853,0.18447221265367669
-0.010079999999999999,0.18404499905235408,0.18380598500434595
-0.0100775,0.18338192363848518,0.18413909882901131
-0.010074999999999999,0.18404499905235408,0.18380598500434595
-0.0100725,0.18404499905235408,0.18347287117968072
-0.010069999999999999,0.18371346134541963,0.18380598500434595
-0.0100675,0.18338192363848532,0.18413909882901117
-0.010064999999999999,0.18371346134541963,0.18380598500434595
-0.010062499999999999,0.18371346134541963,0.18380598500434608
-0.010059999999999999,0.18371346134541963,0.18413909882901131
-0.010057499999999999,0.18371346134541963,0.18413909882901131
-0.010055,0.18371346134541963,0.18413909882901131
-0.010052499999999999,0.18371346134541963,0.18447221265367669
-0.01005,0.18305038593155104,0.18413909882901144
-0.010047499999999999,0.18305038593155074,0.18447221265367669
-0.010044999999999998,0.18338192363848518,0.18447221265367655
-0.010042499999999999,0.18338192363848518,0.18413909882901131
-0.010039999999999999,0.18371346134541963,0.18413909882901131
-0.0100375,0.18371346134541963,0.18413909882901131
-0.010034999999999999,0.18404499905235408,0.18413909882901131
-0.0100325,0.18404499905235408,0.18380598500434595
-0.010029999999999999,0.18404499905235408,0.18447221265367669
-0.0100275,0.18437653675928839,0.18447221265367669
-0.010024999999999999,0.18404499905235408,0.18413909882901131
-0.010022499999999998,0.18371346134541949,0.18380598500434608
-0.010019999999999999,0.18338192363848518,0.18413909882901131
-0.010017499999999999,0.18338192363848518,0.18413909882901131
-0.010015,0.18338192363848518,0.18413909882901131
-0.010012499999999999,0.18371346134541963,0.18380598500434595
-0.01001,0.18371346134541963,0.18413909882901131
-0.010007499999999999,0.18371346134541963,0.18380598500434595
-0.010005,0.18338192363848532,0.18347287117968072
-0.010002499999999999,0.18371346134541963,0.18347287117968059
-0.0099999999999999985,0.18404499905235377,0.18380598500434595
-0.0099974999999999994,0.18338192363848518,0.18380598500434595
-0.0099949999999999987,0.18371346134541963,0.18413909882901131
-0.0099924999999999996,0.18371346134541963,0.18413909882901131
-0.0099899999999999989,0.18371346134541963,0.18380598500434595
-0.0099874999999999999,0.18404499905235394,0.18347287117968072
-0.0099849999999999991,0.18371346134541963,0.18347287117968059
-0.0099825000000000001,0.18371346134541963,0.18380598500434581
-0.0099799999999999993,0.18305038593155074,0.18380598500434595
-0.0099774999999999985,0.18338192363848532,0.18347287117968072
-0.0099749999999999995,0.18371346134541963,0.18380598500434595
-0.0099724999999999987,0.18371346134541963,0.18413909882901131
-0.0099699999999999997,0.18404499905235408,0.18413909882901131
-0.0099674999999999989,0.18371346134541963,0.18380598500434595
-0.0099649999999999999,0.18371346134541963,0.18380598500434595
-0.0099624999999999991,0.18437653675928853,0.18413909882901131
-0.0099599999999999984,0.18470807446622298,0.18380598500434625
-0.0099574999999999993,0.18470807446622298,0.18447221265367669
-0.0099549999999999986,0.18404499905235408,0.18380598500434581
-0.0099524999999999995,0.18404499905235408,0.18347287117968059
-0.0099499999999999988,0.18404499905235408,0.18347287117968059
-0.0099474999999999997,0.18371346134541963,0.18380598500434595
-0.009944999999999999,0.18371346134541963,0.18413909882901131
-0.0099424999999999999,0.18338192363848532,0.18380598500434608
-0.0099399999999999992,0.18338192363848518,0.18380598500434595
-0.0099374999999999984,0.18338192363848549,0.18380598500434608
-0.0099349999999999994,0.18404499905235408,0.18413909882901131
-0.0099324999999999986,0.18371346134541963,0.18380598500434595
-0.0099299999999999996,0.18371346134541963,0.18380598500434595
-0.0099274999999999988,0.18371346134541963,0.18380598500434595
-0.0099249999999999998,0.18371346134541963,0.18380598500434595
-0.009922499999999999,0.18338192363848518,0.18413909882901131
-0.00992,0.18371346134541949,0.18380598500434608
-0.0099174999999999992,0.18371346134541963,0.18347287117968059
-0.0099149999999999985,0.18371346134541963,0.18347287117968072
-0.0099124999999999994,0.18371346134541963,0.18380598500434595
-0.0099099999999999987,0.18437653675928853,0.18380598500434595
-0.0099074999999999996,0.18404499905235408,0.18413909882901131
-0.0099049999999999989,0.18371346134541963,0.18380598500434595
-0.0099024999999999998,0.18371346134541963,0.18413909882901117
-0.0098999999999999991,0.18371346134541963,0.18380598500434595
-0.0098975,0.18338192363848532,0.18347287117968072
-0.0098949999999999993,0.18404499905235408,0.18380598500434595
-0.0098924999999999985,0.18437653675928839,0.18347287117968072
-0.0098899999999999995,0.18404499905235408,0.18380598500434595
-0.0098874999999999987,0.18437653675928853,0.18413909882901131
-0.0098849999999999997,0.18371346134541963,0.18380598500434595
-0.0098824999999999989,0.18404499905235408,0.18380598500434595
-0.0098799999999999999,0.18404499905235408,0.18413909882901117
-0.0098774999999999991,0.18371346134541963,0.18447221265367669
-0.0098750000000000001,0.18404499905235394,0.18380598500434625
-0.0098724999999999993,0.18437653675928853,0.18347287117968059
-0.0098699999999999986,0.18404499905235394,0.18380598500434595
-0.0098674999999999995,0.18371346134541963,0.18380598500434595
-0.0098649999999999988,0.18371346134541963,0.18380598500434595
-0.0098624999999999997,0.18371346134541963,0.18347287117968059
-0.009859999999999999,0.18338192363848518,0.18380598500434595
-0.0098574999999999999,0.18404499905235377,0.18413909882901117
-0.0098549999999999992,0.18338192363848518,0.18413909882901131
-0.0098524999999999984,0.18371346134541963,0.18447221265367639
-0.0098499999999999994,0.18371346134541963,0.18380598500434595
-0.0098474999999999986,0.18371346134541977,0.18380598500434608
-0.0098449999999999996,0.18404499905235408,0.18413909882901131
-0.0098424999999999988,0.18404499905235408,0.18413909882901131
-0.0098399999999999998,0.18371346134541963,0.18347287117968059
-0.009837499999999999,0.18404499905235408,0.18413909882901131
-0.009835,0.18437653675928839,0.18413909882901131
-0.0098324999999999992,0.18437653675928853,0.18413909882901131
-0.0098299999999999985,0.18437653675928853,0.18413909882901131
-0.0098274999999999994,0.18437653675928853,0.18413909882901131
-0.0098249999999999987,0.18470807446622284,0.18447221265367655
-0.0098224999999999996,0.18437653675928853,0.18413909882901131
-0.0098199999999999989,0.18404499905235408,0.18447221265367669
-0.0098174999999999998,0.18404499905235408,0.18380598500434625
-0.0098149999999999991,0.18437653675928853,0.18413909882901131
-0.0098125,0.18404499905235422,0.18380598500434608
-0.0098099999999999993,0.18404499905235408,0.18380598500434595
-0.0098074999999999985,0.18371346134541963,0.18313975735501564
-0.0098049999999999995,0.18371346134541963,0.18413909882901131
-0.0098024999999999987,0.18371346134541963,0.18380598500434595
-0.0097999999999999997,0.18371346134541963,0.18413909882901131
-0.0097974999999999989,0.18338192363848518,0.18413909882901131
-0.0097949999999999999,0.18371346134541949,0.18413909882901131
-0.0097924999999999991,0.18371346134541963,0.18413909882901131
-0.0097900000000000001,0.18371346134541963,0.18380598500434608
-0.0097874999999999993,0.18305038593155074,0.18380598500434595
-0.0097849999999999986,0.18371346134541949,0.18413909882901131
-0.0097824999999999995,0.18338192363848518,0.18413909882901131
-0.0097799999999999988,0.18371346134541963,0.18380598500434595
-0.0097774999999999997,0.18371346134541963,0.18380598500434595
-0.009774999999999999,0.18404499905235408,0.18380598500434595
-0.0097724999999999999,0.18371346134541977,0.18380598500434595
-0.0097699999999999992,0.18404499905235408,0.18380598500434595
-0.0097674999999999984,0.18371346134541949,0.18447221265367655
-0.0097649999999999994,0.18338192363848518,0.18413909882901131
-0.0097624999999999986,0.18371346134541977,0.18413909882901131
-0.0097599999999999996,0.18404499905235408,0.18413909882901131
-0.0097574999999999988,0.18371346134541963,0.18413909882901131
-0.0097549999999999998,0.18371346134541963,0.18380598500434595
-0.009752499999999999,0.18404499905235408,0.18413909882901131
-0.00975,0.18404499905235408,0.18380598500434608
-0.0097474999999999992,0.18470807446622298,0.18413909882901131
-0.0097449999999999985,0.18404499905235394,0.18347287117968059
-0.0097424999999999994,0.18371346134541963,0.18347287117968059
-0.0097399999999999987,0.18404499905235394,0.18447221265367655
-0.0097374999999999996,0.18371346134541963,0.18413909882901131
-0.0097349999999999989,0.18371346134541963,0.18380598500434595
-0.0097324999999999998,0.18470807446622253,0.18413909882901117
-0.0097299999999999991,0.18404499905235408,0.18447221265367669
-0.0097275,0.18404499905235408,0.18447221265367669
-0.0097249999999999993,0.18371346134541963,0.18413909882901131
-0.0097224999999999985,0.18371346134541963,0.18413909882901131
-0.0097199999999999995,0.18371346134541963,0.18413909882901131
-0.0097174999999999987,0.18371346134541963,0.18413909882901131
-0.0097149999999999997,0.18338192363848518,0.18447221265367669
-0.0097124999999999989,0.18338192363848518,0.18480532647834202
-0.0097099999999999999,0.18371346134541949,0.18413909882901161
-0.0097074999999999991,0.18404499905235408,0.18447221265367669
-0.0097050000000000001,0.18338192363848549,0.18480532647834189
-0.0097024999999999993,0.18371346134541963,0.18480532647834202
-0.0096999999999999986,0.18371346134541963,0.18447221265367669
-0.0096974999999999995,0.18371346134541963,0.18447221265367669
-0.0096949999999999988,0.18371346134541963,0.18447221265367669
-0.0096924999999999997,0.18371346134541963,0.18413909882901131
-0.009689999999999999,0.18404499905235408,0.18413909882901131
-0.0096874999999999999,0.18404499905235408,0.18413909882901131
-0.0096849999999999992,0.18371346134541963,0.18447221265367669
-0.0096824999999999984,0.18371346134541949,0.18480532647834189
-0.0096799999999999994,0.18338192363848518,0.18447221265367669
-0.0096774999999999986,0.18338192363848504,0.18447221265367683
-0.0096749999999999996,0.18305038593155074,0.18480532647834202
-0.0096724999999999988,0.18305038593155074,0.18447221265367669
-0.0096699999999999998,0.18305038593155074,0.18447221265367669
-0.009667499999999999,0.18371346134541963,0.18380598500434595
-0.009665,0.18371346134541963,0.18380598500434595
-0.0096624999999999992,0.18404499905235408,0.18413909882901131
-0.0096599999999999984,0.18404499905235394,0.18447221265367669
-0.0096574999999999994,0.18371346134541963,0.18447221265367669
-0.0096549999999999987,0.18338192363848488,0.18480532647834202
-0.0096524999999999996,0.18271884822461629,0.18480532647834202
-0.0096499999999999989,0.18305038593155074,0.18480532647834202
-0.0096474999999999998,0.18371346134541933,0.18480532647834202
-0.0096449999999999991,0.18338192363848518,0.18447221265367669
-0.0096425,0.18371346134541949,0.18413909882901144
-0.0096399999999999993,0.18404499905235408,0.18413909882901131
-0.0096374999999999985,0.18371346134541963,0.18447221265367655
-0.0096349999999999995,0.18371346134541963,0.18413909882901131
-0.0096324999999999987,0.18404499905235408,0.18447221265367669
-0.0096299999999999997,0.18404499905235408,0.18413909882901131
-0.0096274999999999989,0.18371346134541963,0.18413909882901131
-0.0096249999999999999,0.18404499905235394,0.18447221265367655
-0.0096224999999999991,0.18371346134541963,0.18413909882901131
-0.0096200000000000001,0.18371346134541963,0.18413909882901131
-0.0096174999999999993,0.18371346134541963,0.18347287117968059
-0.0096149999999999985,0.18305038593155104,0.18347287117968089
-0.0096124999999999995,0.18371346134541963,0.18413909882901131
-0.0096099999999999988,0.18371346134541963,0.18413909882901131
-0.0096074999999999997,0.18338192363848518,0.18380598500434595
-0.009604999999999999,0.18338192363848518,0.18347287117968059
-0.0096024999999999999,0.18338192363848518,0.18347287117968059
-0.0095999999999999992,0.18338192363848518,0.18380598500434595
-0.0095974999999999984,0.18305038593155087,0.18413909882901144
-0.0095949999999999994,0.18338192363848518,0.18447221265367669
-0.0095924999999999986,0.18371346134541933,0.18447221265367639
-0.0095899999999999996,0.18305038593155074,0.18380598500434595
-0.0095874999999999988,0.18338192363848518,0.18447221265367669
-0.0095849999999999998,0.18371346134541963,0.18413909882901131
-0.009582499999999999,0.18371346134541963,0.18447221265367669
-0.00958,0.18371346134541963,0.18413909882901144
-0.0095774999999999992,0.18371346134541963,0.18380598500434595
-0.0095749999999999984,0.18371346134541963,0.18413909882901117
-0.0095724999999999994,0.18371346134541963,0.18380598500434595
-0.0095699999999999986,0.18404499905235394,0.18413909882901144
-0.0095674999999999996,0.18371346134541963,0.18447221265367669
-0.0095649999999999989,0.18371346134541963,0.18447221265367669
-0.0095624999999999998,0.18371346134541963,0.18447221265367669
-0.0095599999999999991,0.18371346134541963,0.18447221265367669
-0.0095575,0.18437653675928822,0.18447221265367669
-0.0095549999999999993,0.18404499905235408,0.18447221265367669
-0.0095524999999999985,0.18404499905235394,0.18413909882901161
-0.0095499999999999995,0.18371346134541963,0.18480532647834202
-0.0095474999999999987,0.18404499905235408,0.18480532647834202
-0.0095449999999999997,0.18371346134541963,0.18447221265367669
-0.0095424999999999989,0.18371346134541963,0.18480532647834202
-0.0095399999999999999,0.18371346134541963,0.18480532647834202
-0.0095374999999999991,0.18404499905235408,0.18480532647834202
-0.0095350000000000001,0.18404499905235408,0.18447221265367683
-0.0095324999999999993,0.18371346134541963,0.18413909882901131
-0.0095299999999999985,0.18404499905235408,0.18413909882901131
-0.0095274999999999995,0.18404499905235408,0.18413909882901131
-0.0095249999999999987,0.18404499905235408,0.18413909882901131
-0.0095224999999999997,0.18371346134541963,0.18380598500434595
-0.0095199999999999989,0.18338192363848518,0.18413909882901131
-0.0095174999999999999,0.18404499905235377,0.18380598500434608
-0.0095149999999999992,0.18404499905235408,0.18413909882901131
-0.0095124999999999984,0.18437653675928853,0.18413909882901131
-0.0095099999999999994,0.18437653675928853,0.18413909882901131
-0.0095074999999999986,0.18437653675928839,0.18413909882901117
-0.0095049999999999996,0.18404499905235408,0.18380598500434595
-0.0095024999999999988,0.18371346134541963,0.18380598500434595
-0.0094999999999999998,0.18305038593155074,0.18380598500434595
-0.009497499999999999,0.18338192363848518,0.18347287117968059
-0.009495,0.18305038593155087,0.18347287117968059
-0.0094924999999999992,0.18338192363848518,0.18347287117968059
-0.0094899999999999984,0.18371346134541963,0.18380598500434608
-0.0094874999999999994,0.18371346134541963,0.18413909882901131
-0.0094849999999999986,0.18404499905235394,0.18413909882901131
-0.0094824999999999996,0.18371346134541963,0.18413909882901131
-0.0094799999999999988,0.18371346134541963,0.18413909882901131
-0.0094774999999999998,0.18371346134541963,0.18380598500434608
-0.009474999999999999,0.18404499905235408,0.18380598500434595
-0.0094725,0.18371346134541977,0.18413909882901117
-0.0094699999999999993,0.18371346134541963,0.18447221265367669
-0.0094674999999999985,0.18338192363848518,0.18447221265367669
-0.0094649999999999995,0.18338192363848518,0.18447221265367669
-0.0094624999999999987,0.18338192363848518,0.18413909882901131
-0.0094599999999999997,0.18338192363848518,0.18447221265367669
-0.0094574999999999989,0.18371346134541963,0.18413909882901131
-0.0094549999999999999,0.18371346134541963,0.18380598500434608
-0.0094524999999999991,0.18371346134541963,0.18380598500434595
-0.0094500000000000001,0.18371346134541963,0.18380598500434595
-0.0094474999999999993,0.18338192363848518,0.18413909882901131
-0.0094449999999999985,0.18371346134541963,0.18380598500434595
-0.0094424999999999995,0.18371346134541963,0.18380598500434595
-0.0094399999999999987,0.18404499905235408,0.18380598500434595
-0.0094374999999999997,0.18371346134541963,0.18380598500434595
